<?xml version="1.0" encoding="utf-8"?>
<!-- Generator: Adobe Illustrator 22.0.1, SVG Export Plug-In . SVG Version: 6.00 Build 0)  -->
<svg version="1.1" id="Слой_1" xmlns="http://www.w3.org/2000/svg" xmlns:xlink="http://www.w3.org/1999/xlink" x="0px" y="0px"
	 viewBox="0 0 38.261 21.69" style="enable-background:new 0 0 38.261 21.69;" xml:space="preserve">
<title>A</title>
<linearGradient id="SVGID_1_" gradientUnits="userSpaceOnUse" x1="1.1819" y1="15.9795" x2="5.6569" y2="15.9795" gradientTransform="matrix(0.9688 -0.248 0.248 0.9688 -2.0924 0.7222)">
	<stop  offset="0" style="stop-color:#2181C4"/>
	<stop  offset="1" style="stop-color:#4AACDB"/>
</linearGradient>
<circle style="fill:url(#SVGID_1_);" cx="5.183" cy="15.355" r="2.237"/>
<linearGradient id="SVGID_2_" gradientUnits="userSpaceOnUse" x1="7" y1="8.2607" x2="10" y2="8.2607">
	<stop  offset="0" style="stop-color:#2181C4"/>
	<stop  offset="1" style="stop-color:#4AACDB"/>
</linearGradient>
<circle style="fill:url(#SVGID_2_);" cx="8.5" cy="8.261" r="1.5"/>
<linearGradient id="SVGID_3_" gradientUnits="userSpaceOnUse" x1="0" y1="9.9294" x2="3" y2="9.9294">
	<stop  offset="0" style="stop-color:#2181C4"/>
	<stop  offset="1" style="stop-color:#4AACDB"/>
</linearGradient>
<circle style="fill:url(#SVGID_3_);" cx="1.5" cy="9.929" r="1.5"/>
<g transform="translate(0,-270.54165)">
	<path style="opacity:0.5;fill:#C5F1FF;" d="M16.605,270.542h-3.969c-1.017,0-1.854,0.837-1.854,1.854v14.816
		c0,1.017,0.837,1.852,1.854,1.852h21.166c1.017,0,1.854-0.835,1.854-1.852v-14.816c0-1.017-0.837-1.854-1.854-1.854H21.103"/>
	<linearGradient id="SVGID_4_" gradientUnits="userSpaceOnUse" x1="11.3885" y1="281.9711" x2="38.2614" y2="281.9711">
		<stop  offset="3.299198e-07" style="stop-color:#2181C4"/>
		<stop  offset="1" style="stop-color:#4AACDB"/>
	</linearGradient>
	
		<path style="fill:none;stroke:url(#SVGID_4_);stroke-width:2;stroke-linecap:round;stroke-linejoin:round;stroke-miterlimit:10;" d="
		M36.407,274.039l-10.43,9.088c-0.718,0.616-1.662,0.55-2.304,0l-10.43-9.088 M18.211,272.71h-3.969
		c-1.017,0-1.854,0.837-1.854,1.854v14.816c0,1.017,0.837,1.852,1.854,1.852h21.166c1.017,0,1.854-0.835,1.854-1.852v-14.816
		c0-1.017-0.837-1.854-1.854-1.854H22.709"/>
	<linearGradient id="SVGID_5_" gradientUnits="userSpaceOnUse" x1="27.7931" y1="284.8814" x2="32.4396" y2="284.8814">
		<stop  offset="3.299198e-07" style="stop-color:#2181C4"/>
		<stop  offset="1" style="stop-color:#4AACDB"/>
	</linearGradient>
	
		<path style="fill:none;stroke:url(#SVGID_5_);stroke-width:2;stroke-linecap:round;stroke-linejoin:round;stroke-miterlimit:10;" d="
		M31.44,284.881h-2.646"/>
	<linearGradient id="SVGID_6_" gradientUnits="userSpaceOnUse" x1="27.7931" y1="287.9967" x2="34.5568" y2="287.9967">
		<stop  offset="3.299198e-07" style="stop-color:#2181C4"/>
		<stop  offset="1" style="stop-color:#4AACDB"/>
	</linearGradient>
	
		<path style="fill:none;stroke:url(#SVGID_6_);stroke-width:2;stroke-linecap:round;stroke-linejoin:round;stroke-miterlimit:10;" d="
		M33.557,287.997h-4.764"/>
</g>
</svg>
