<?xml version="1.0" encoding="utf-8"?>
<!-- Generator: Adobe Illustrator 22.0.1, SVG Export Plug-In . SVG Version: 6.00 Build 0)  -->
<svg version="1.1" id="Слой_1" xmlns="http://www.w3.org/2000/svg" xmlns:xlink="http://www.w3.org/1999/xlink" x="0px" y="0px"
	 viewBox="0 0 130 48" style="enable-background:new 0 0 130 48;" xml:space="preserve">
<defs>
	<filter id="Adobe_OpacityMaskFilter" filterUnits="userSpaceOnUse" x="0" y="0" width="130" height="48">
		<feColorMatrix  type="matrix" values="1 0 0 0 0  0 1 0 0 0  0 0 1 0 0  0 0 0 1 0"/>
	</filter>
</defs>
<mask maskUnits="userSpaceOnUse" x="0" y="0" width="130" height="48" id="SVGID_2_">
	<g style="filter:url(#Adobe_OpacityMaskFilter);">
		
			<linearGradient id="SVGID_1_" gradientUnits="userSpaceOnUse" x1="-1464.9307" y1="-111.5109" x2="-1463.9307" y2="-111.5109" gradientTransform="matrix(306.2875 198.9054 -198.9054 306.2875 426699.9063 325322.8438)">
			<stop  offset="0" style="stop-color:#FFFFFF"/>
			<stop  offset="1" style="stop-color:#000000"/>
		</linearGradient>
		<polygon style="fill:url(#SVGID_1_);" points="231.4,-1252.9 1725.6,-282.6 752.1,1216.4 -742.1,246.1 		"/>
	</g>
</mask>
<g style="mask:url(#SVGID_2_);">
	<g>
		<g>
			<g>
				
					<linearGradient id="SVGID_4_" gradientUnits="userSpaceOnUse" x1="0" y1="25.9731" x2="130.0154" y2="25.9731" gradientTransform="matrix(1 0 0 -1 0 50)">
					<stop  offset="0" style="stop-color:#F5FAFE"/>
					<stop  offset="1" style="stop-color:#C6E7F6"/>
				</linearGradient>
				<path id="SVGID_3_" style="fill:url(#SVGID_4_);" d="M20,1.8c0,0-20,0-20,20v2c0,0,2.3,16,20,20c34.8,9,87.3,1,90,0
					c2.8-1,20-5,20-20v-2c0,0,1.3-16-20-20C88.8-2.2,20,1.8,20,1.8"/>
			</g>
		</g>
	</g>
</g>
</svg>
