<svg xmlns="http://www.w3.org/2000/svg" viewBox="0 0 544.473 124.637">
  <path d="M209.279 28.505l-5.86 15.604h11.852l-5.992-15.604zm3.82-11.72l16.426 41.189-7.604 3.583-4.015-10.535h-16.988l-3.95 10.535h-8.301c-.144-.001-.205-.136-.144-.292l17.28-44.342c.036-.091.097-.138.206-.138h7.09zM254.709 41.937h-9.81v12.575h9.218c2.282 0 4.115-.526 5.498-1.58 1.382-1.053 2.073-2.546 2.073-4.478 0-2.106-.636-3.719-1.909-4.838-1.273-1.12-2.963-1.679-5.07-1.679m-2.831-18.041h-6.979v11.128h6.321c2.371 0 4.224-.45 5.564-1.35 1.338-.899 2.007-2.316 2.007-4.248 0-2.106-.615-3.555-1.843-4.345-1.23-.791-2.92-1.185-5.07-1.185m1.251-7.111c4.345 0 7.878.955 10.601 2.864 2.721 1.909 4.082 5.126 4.082 9.647 0 1.668-.385 3.17-1.153 4.509s-1.767 2.492-2.995 3.458c2.018 1.052 3.676 2.479 4.97 4.278 1.295 1.802 1.943 4.082 1.943 6.849 0 4.125-1.437 7.352-4.312 9.678-2.876 2.327-6.706 3.489-11.49 3.489h-18.051c-.239 0-.318-.089-.318-.292V16.949c0-.108.039-.164.138-.164h16.585zM277.359 50.84c1.361.702 4.936 2.247 7.044 2.947 2.106.704 4.103 1.054 5.991 1.054 2.678 0 4.686-.416 6.025-1.251 1.338-.833 2.008-2.04 2.008-3.62 0-1.493-.89-2.82-2.667-3.984a63.804 63.804 0 00-5.894-3.391 61.821 61.821 0 01-9.052-5.695c-2.876-2.172-4.312-5.235-4.312-9.185 0-3.379 1.338-6.223 4.016-8.526 2.676-2.305 6.474-3.458 11.39-3.458 2.24 0 4.477.352 6.718 1.054 2.237.702 4.212 1.472 5.923 2.305l-3.726 6.425c-1.362-.658-1.936-.862-3.514-1.455-1.582-.592-3.338-.888-5.269-.888-1.888 0-3.48.373-4.773 1.119-1.296.747-1.943 1.888-1.943 3.424 0 1.624.779 2.974 2.337 4.049 1.557 1.077 3.435 2.162 5.63 3.26l.46.263a61.707 61.707 0 019.12 5.761c2.917 2.216 4.379 5.234 4.379 9.053 0 3.555-1.438 6.496-4.312 8.822-2.878 2.328-7.013 3.49-12.413 3.49-1.887 0-4.312-.418-7.275-1.251-2.788-.784-4.712-1.588-5.77-2.413a.587.587 0 01-.186-.424l.065-7.485M322.721 39.303c0 4.697.944 8.538 2.831 11.523 1.887 2.986 4.827 4.477 8.822 4.477 3.6 0 6.474-1.34 8.626-4.017 2.15-2.677 3.226-6.804 3.226-12.378 0-4.652-.944-8.471-2.831-11.456-1.888-2.986-4.829-4.477-8.822-4.477-3.513 0-6.366 1.47-8.56 4.411-2.195 2.941-3.292 6.913-3.292 11.917m-8.889.066c0-6.89 1.8-12.519 5.399-16.889 3.599-4.367 8.669-6.616 15.209-6.749 7.023 0 12.225 2.262 15.605 6.783 3.38 4.52 5.07 9.986 5.07 16.394 0 6.937-1.81 12.599-5.432 16.987-3.621 4.391-8.702 6.584-15.243 6.584-6.979 0-12.158-2.249-15.538-6.749-3.38-4.498-5.07-9.952-5.07-16.361M393.96 61.557h-29.256c-.223-.001-.306-.133-.306-.277V17.004c0-.144.066-.219.178-.219h8.316v38.122h18.502l2.566 6.65zM408.382 16.785v27.851c0 3.731.899 6.442 2.699 8.132 1.799 1.69 4.125 2.535 6.979 2.535 2.897 0 5.235-.878 7.012-2.634 1.777-1.755 2.667-4.433 2.667-8.033V16.785h8.624v28.509c0 4.829-1.656 8.868-4.97 12.115-3.315 3.249-7.802 4.873-13.464 4.873-5.575 0-9.998-1.624-13.268-4.873-3.27-3.247-4.905-7.286-4.905-12.115V17.001s-.009-.216.195-.216h8.431zM442.227 16.785h34.669l2.659 6.716h-15.34v38.056s-7.913.001-8.142 0-.483-.198-.483-.494V23.501h-13.63v-6.413c0-.206.107-.303.267-.303M493.908 16.785v44.772h-8.07c-.287.001-.423-.203-.423-.413V16.982c0-.13.063-.197.167-.197h8.326zM512.079 39.303c0 4.697.944 8.538 2.831 11.523 1.886 2.986 4.827 4.477 8.822 4.477 3.6 0 6.474-1.34 8.625-4.017s3.227-6.804 3.227-12.378c0-4.652-.944-8.471-2.831-11.456-1.888-2.986-4.829-4.477-8.823-4.477-3.511 0-6.365 1.47-8.559 4.411-2.195 2.941-3.292 6.913-3.292 11.917m-8.889.066c0-6.89 1.8-12.519 5.399-16.889 3.599-4.367 8.669-6.616 15.209-6.749 7.023 0 12.225 2.262 15.605 6.783 3.38 4.52 5.07 9.986 5.07 16.394 0 6.937-1.811 12.599-5.432 16.987-3.621 4.391-8.703 6.584-15.243 6.584-6.979 0-12.158-2.249-15.538-6.749-3.38-4.498-5.07-9.952-5.07-16.361M208.133 99.264h-1.202l-4.594-16.142a59.076 59.076 0 01-.858-3.263c-.153.831-.37 1.784-.652 2.862-.281 1.078-1.819 6.592-4.615 16.543h-1.23l-5.754-20.922h1.532l3.663 13.481c.144.543.277 1.047.401 1.509.124.463.237.898.336 1.302a33.6 33.6 0 01.494 2.311c.229-1.297.716-3.268 1.46-5.91l3.577-12.693h1.617l4.193 14.569c.487 1.678.836 3.033 1.045 4.063.124-.687.284-1.416.48-2.189.195-.773 1.667-6.254 4.415-16.443h1.473l-5.781 20.922zM232.558 99.264h-11.435V78.342h11.435v1.345h-9.975v7.914H232v1.345h-9.417v8.973h9.975zM263.49 93.869c0 1.745-.641 3.13-1.925 4.15-1.283 1.021-2.988 1.531-5.116 1.531-2.557 0-4.517-.282-5.881-.845v-1.458c1.507.638 3.429.958 5.767.958 1.717 0 3.078-.394 4.086-1.181 1.006-.786 1.51-1.819 1.51-3.099 0-.791-.168-1.447-.502-1.967-.334-.52-.877-.995-1.631-1.424-.753-.429-1.86-.891-3.32-1.387-2.138-.735-3.613-1.529-4.429-2.383-.816-.855-1.224-1.991-1.224-3.414 0-1.564.613-2.84 1.839-3.827 1.226-.988 2.802-1.482 4.73-1.482 1.965 0 3.811.372 5.538 1.116l-.53 1.26c-1.736-.726-3.396-1.088-4.979-1.088-1.546 0-2.777.358-3.693 1.073-.915.716-1.373 1.689-1.373 2.919 0 .773.14 1.408.422 1.904.281.496.741.943 1.38 1.338.639.396 1.737.871 3.292 1.424 1.632.563 2.857 1.109 3.678 1.639.821.529 1.418 1.13 1.796 1.803.376.672.565 1.486.565 2.44M271.901 88.774c0 2.995.668 5.312 2.003 6.948 1.336 1.635 3.254 2.454 5.754 2.454 2.517 0 4.442-.811 5.773-2.433 1.331-1.621 1.996-3.945 1.996-6.969 0-3.014-.665-5.326-1.996-6.933-1.331-1.608-3.246-2.411-5.745-2.411-2.49 0-4.41.811-5.761 2.432-1.349 1.622-2.024 3.925-2.024 6.912m17.116 0c0 3.32-.831 5.945-2.49 7.878-1.66 1.932-3.95 2.898-6.869 2.898-2.911 0-5.194-.966-6.856-2.898-1.66-1.933-2.489-4.568-2.489-7.907 0-3.329.836-5.95 2.511-7.864 1.675-1.912 3.961-2.868 6.862-2.868 2.92 0 5.203.96 6.854 2.883 1.651 1.923 2.477 4.549 2.477 7.878M297.342 99.264V78.342h1.461V97.89h9.974v1.374zM328.264 78.342h1.588l-7.827 20.922h-1.289l-7.798-20.922h1.559l5.267 14.238c.802 2.147 1.34 3.76 1.617 4.838.19-.716.568-1.827 1.131-3.334l5.752-15.742zM347.766 99.264h-11.435V78.342h11.435v1.345h-9.974v7.914h9.416v1.345h-9.416v8.973h9.974zM367.15 78.342h1.461v20.922h-1.461zM383.503 99.264h-1.474V79.716h-6.797v-1.374H390.3v1.374h-6.797z" fill="#fff"/>
  <linearGradient id="a" gradientUnits="userSpaceOnUse" x1="123.865" y1="-.707" x2="146.673" y2="128.643" gradientTransform="matrix(1 0 0 -1 0 126)">
    <stop offset="0" stop-color="#fff"/>
    <stop offset=".01" stop-color="#fff"/>
    <stop offset=".581" stop-color="#edf2f8"/>
    <stop offset="1" stop-color="#e7eef5"/>
  </linearGradient>
  <path d="M112.125 13.486v111.151h18.784c30.791-1.378 30.79-35.401 30.79-35.401V.007l-49.574 13.479z" fill="url(#a)"/>
  <linearGradient id="b" gradientUnits="userSpaceOnUse" x1="-6.665" y1="12.915" x2="168.578" y2="114.092" gradientTransform="matrix(1 0 0 -1 0 126)">
    <stop offset="0" stop-color="#fff"/>
    <stop offset=".464" stop-color="#e0f3fa"/>
    <stop offset="1" stop-color="#c4d6ee"/>
  </linearGradient>
  <path d="M128.289 0c-1.373 0-27.769.318-47.456 24.598C60.898 49.186 1.645 122.592 0 124.63h34.033c5.188-.296 28.453-2.591 42.758-20.174C92.964 84.576 161.703 0 161.703 0h-33.359-.055" fill="url(#b)"/>
</svg>
