<?xml version="1.0" encoding="utf-8"?>
<!-- Generator: Adobe Illustrator 22.0.1, SVG Export Plug-In . SVG Version: 6.00 Build 0)  -->
<svg version="1.1" id="Слой_1" xmlns="http://www.w3.org/2000/svg" xmlns:xlink="http://www.w3.org/1999/xlink" x="0px" y="0px"
	 viewBox="0 0 208.1 229.8" style="enable-background:new 0 0 208.1 229.8;" xml:space="preserve">
<g>
	<defs>
		<path id="SVGID_1_" d="M9.9,0C-4,62.8-5.6,192.3,20.5,211.3c31.7,23.2,126.6,26.1,162.5,0C212,190.2,214.4,60.9,198,0H9.9z"/>
	</defs>
	<linearGradient id="SVGID_2_" gradientUnits="userSpaceOnUse" x1="5.6106" y1="196.6903" x2="200.1341" y2="2.1667">
		<stop  offset="6.486497e-02" style="stop-color:#3EA0D4"/>
		<stop  offset="0.1324" style="stop-color:#3293CD"/>
		<stop  offset="0.2036" style="stop-color:#2181C4"/>
	</linearGradient>
	<use xlink:href="#SVGID_1_"  style="overflow:visible;fill:url(#SVGID_2_);"/>
	<clipPath id="SVGID_3_">
		<use xlink:href="#SVGID_1_"  style="overflow:visible;"/>
	</clipPath>
</g>
</svg>
