<?xml version="1.0" encoding="utf-8"?>
<!-- Generator: Adobe Illustrator 22.0.1, SVG Export Plug-In . SVG Version: 6.00 Build 0)  -->
<svg version="1.1" id="Слой_1" xmlns="http://www.w3.org/2000/svg" xmlns:xlink="http://www.w3.org/1999/xlink" x="0px" y="0px"
	 viewBox="0 0 640.2 286.7" style="enable-background:new 0 0 640.2 286.7;" xml:space="preserve">
<polygon style="fill:#2181C4;" points="0,10 0,286.7 640.2,286.7 640.2,0 "/>
</svg>
