<?xml version="1.0" encoding="utf-8"?>
<!-- Generator: Adobe Illustrator 22.0.1, SVG Export Plug-In . SVG Version: 6.00 Build 0)  -->
<svg version="1.1" id="Слой_1" xmlns="http://www.w3.org/2000/svg" xmlns:xlink="http://www.w3.org/1999/xlink" x="0px" y="0px"
	 viewBox="0 0 10.998 31.758" style="enable-background:new 0 0 10.998 31.758;" xml:space="preserve">
<path style="fill:none;stroke:#21BAED;stroke-width:1.87;stroke-miterlimit:10;" d="M0.661,3.02l8.676,8.678 M0.661,9.487
	l8.676,8.677 M0.661,15.953l8.676,8.678 M0.661,22.419l8.676,8.678"/>
<path style="fill:none;stroke:#2180C3;stroke-width:1.87;stroke-miterlimit:10;" d="M1.661,0.661l8.676,8.677 M1.661,7.127
	l8.676,8.677 M1.661,13.593l8.676,8.678 M1.661,20.059l8.676,8.678"/>
</svg>
