<?xml version="1.0" encoding="utf-8"?>
<!-- Generator: Adobe Illustrator 22.0.1, SVG Export Plug-In . SVG Version: 6.00 Build 0)  -->
<svg version="1.1" id="Слой_1" xmlns="http://www.w3.org/2000/svg" xmlns:xlink="http://www.w3.org/1999/xlink" x="0px" y="0px"
	 viewBox="0 0 367.6 567.6" style="enable-background:new 0 0 367.6 567.6;" xml:space="preserve">
<path style="fill:#F2F9FE;" d="M107,511.3c36.7,31.4,112.5,90.9,260.6,29.7V4C310.9-8.2,230.1,4.1,120,87.8
	C-91.6,248.6,24.3,440.6,107,511.3z"/>
</svg>
