<?xml version="1.0" encoding="utf-8"?>
<!-- Generator: Adobe Illustrator 22.0.1, SVG Export Plug-In . SVG Version: 6.00 Build 0)  -->
<svg version="1.1" id="Слой_1" xmlns="http://www.w3.org/2000/svg" xmlns:xlink="http://www.w3.org/1999/xlink" x="0px" y="0px"
	 viewBox="0 0 499.2 707.2" style="enable-background:new 0 0 499.2 707.2;" xml:space="preserve">
<linearGradient id="SVGID_1_" gradientUnits="userSpaceOnUse" x1="499.2383" y1="353.6065" x2="-9.094947e-13" y2="353.6065">
	<stop  offset="0" style="stop-color:#4A92D0"/>
	<stop  offset="1" style="stop-color:#527ABD"/>
</linearGradient>
<path style="fill:url(#SVGID_1_);" d="M313,141.2C171.3,45.6,71.4,8.3,0,0v585.2c291,204.4,385.9,98.1,416.8,63.5
	C448.5,613.1,635,358.4,313,141.2z"/>
</svg>
