<?xml version="1.0" encoding="utf-8"?>
<!-- Generator: Adobe Illustrator 22.0.1, SVG Export Plug-In . SVG Version: 6.00 Build 0)  -->
<svg version="1.1" id="Слой_1" xmlns="http://www.w3.org/2000/svg" xmlns:xlink="http://www.w3.org/1999/xlink" x="0px" y="0px"
	 viewBox="0 0 696 624" style="enable-background:new 0 0 696 624;" xml:space="preserve">
<path style="fill:#F5FAFE;" d="M444.2,593.7C667,494.8,743.7,393.4,667.2,226S543.9-4.8,253.2,0.3S-22.5,204.2,30.2,368
	C83,531.9,221.4,692.5,444.2,593.7"/>
</svg>
