<?xml version="1.0" encoding="utf-8"?>
<!-- Generator: Adobe Illustrator 22.0.1, SVG Export Plug-In . SVG Version: 6.00 Build 0)  -->
<svg version="1.1" id="Слой_1" xmlns="http://www.w3.org/2000/svg" xmlns:xlink="http://www.w3.org/1999/xlink" x="0px" y="0px"
	 viewBox="0 0 14 14" style="enable-background:new 0 0 14 14;" xml:space="preserve">
<polyline style="fill:none;stroke:#76D8D0;stroke-width:0.854;stroke-miterlimit:10;" points="13.573,14 13.573,0.427 0,0.427 "/>
<line style="fill:none;stroke:#76D8D0;stroke-width:0.854;stroke-miterlimit:10;" x1="13.367" y1="0.806" x2="0.979" y2="13.193"/>
</svg>
