<?xml version="1.0" encoding="utf-8"?>
<!-- Generator: Adobe Illustrator 22.0.1, SVG Export Plug-In . SVG Version: 6.00 Build 0)  -->
<svg version="1.1" id="Слой_1" xmlns="http://www.w3.org/2000/svg" xmlns:xlink="http://www.w3.org/1999/xlink" x="0px" y="0px"
	 viewBox="0 0 1280 216" style="enable-background:new 0 0 1280 216;" xml:space="preserve">
<g>
	<defs>
		<path id="SVGID_1_" d="M0,20v196h1280V20c0,0-534-20-640-20S0,20,0,20" fill="url(#Gradient1)"/>
	      <linearGradient id="Gradient1" x1="0" x2="100%" y1="100%" y2="100%">
	        <stop offset="0%" stop-color="#219fd9"/>
	        <!-- <stop offset="50%" stop-color="blue" stop-opacity="0"/> -->
	        <stop offset="100%" stop-color="#2181c4"/>
	      </linearGradient>
	      <style type="text/css"><![CDATA[
	        #rect1 { fill: url(#Gradient1); }
	        .stop1 { stop-color: green; }
	        .stop2 { stop-color: black; stop-opacity: 0; }
	        .stop3 { stop-color: red; }
	      ]]></style>
	</defs>
	<use xlink:href="#SVGID_1_"  style="overflow:visible;"/>
	<clipPath id="SVGID_2_">
		<use xlink:href="#SVGID_1_"  style="overflow:visible;"/>
	</clipPath>
</g>
</svg>
