<?xml version="1.0" encoding="utf-8"?>
<!-- Generator: Adobe Illustrator 22.0.1, SVG Export Plug-In . SVG Version: 6.00 Build 0)  -->
<svg version="1.1" id="Слой_1" xmlns="http://www.w3.org/2000/svg" xmlns:xlink="http://www.w3.org/1999/xlink" x="0px" y="0px"
	 viewBox="0 0 544.473 124.637" style="enable-background:new 0 0 544.473 124.637;" xml:space="preserve">
<path style="fill:#434958;" d="M209.279,28.505l-5.86,15.604h11.852L209.279,28.505z M213.099,16.785l16.426,41.189l-7.604,3.583
	l-4.015-10.535h-16.988l-3.95,10.535c0,0-8.157,0.001-8.301,0s-0.205-0.136-0.144-0.292c0.059-0.151,16.227-41.64,17.28-44.342
	c0.036-0.091,0.097-0.138,0.206-0.138C206.009,16.785,213.099,16.785,213.099,16.785z"/>
<path style="fill:#434958;" d="M254.709,41.937h-9.81v12.575h9.218c2.282,0,4.115-0.526,5.498-1.58
	c1.382-1.053,2.073-2.546,2.073-4.478c0-2.106-0.636-3.719-1.909-4.838C258.506,42.496,256.816,41.937,254.709,41.937
	 M251.878,23.896h-6.979v11.128h6.321c2.371,0,4.224-0.45,5.564-1.35c1.338-0.899,2.007-2.316,2.007-4.248
	c0-2.106-0.615-3.555-1.843-4.345C255.718,24.29,254.028,23.896,251.878,23.896 M253.129,16.785c4.345,0,7.878,0.955,10.601,2.864
	c2.721,1.909,4.082,5.126,4.082,9.647c0,1.668-0.385,3.17-1.153,4.509s-1.767,2.492-2.995,3.458c2.018,1.052,3.676,2.479,4.97,4.278
	c1.295,1.802,1.943,4.082,1.943,6.849c0,4.125-1.437,7.352-4.312,9.678c-2.876,2.327-6.706,3.489-11.49,3.489c0,0-17.734,0-18.051,0
	c-0.239,0-0.318-0.089-0.318-0.292V16.949c0-0.108,0.039-0.164,0.138-0.164H253.129z"/>
<path style="fill:#434958;" d="M277.359,50.84c1.361,0.702,4.936,2.247,7.044,2.947c2.106,0.704,4.103,1.054,5.991,1.054
	c2.678,0,4.686-0.416,6.025-1.251c1.338-0.833,2.008-2.04,2.008-3.62c0-1.493-0.89-2.82-2.667-3.984
	c-1.777-1.162-3.744-2.293-5.894-3.391c-3.16-1.623-6.178-3.522-9.052-5.695c-2.876-2.172-4.312-5.235-4.312-9.185
	c0-3.379,1.338-6.223,4.016-8.526c2.676-2.305,6.474-3.458,11.39-3.458c2.24,0,4.477,0.352,6.718,1.054
	c2.237,0.702,4.212,1.472,5.923,2.305l-3.726,6.425c-1.362-0.658-1.936-0.862-3.514-1.455c-1.582-0.592-3.338-0.888-5.269-0.888
	c-1.888,0-3.48,0.373-4.773,1.119c-1.296,0.747-1.943,1.888-1.943,3.424c0,1.624,0.779,2.974,2.337,4.049
	c1.557,1.077,3.435,2.162,5.63,3.26l0.46,0.263c3.161,1.624,6.201,3.545,9.12,5.761c2.917,2.216,4.379,5.234,4.379,9.053
	c0,3.555-1.438,6.496-4.312,8.822c-2.878,2.328-7.013,3.49-12.413,3.49c-1.887,0-4.312-0.418-7.275-1.251
	c-2.788-0.784-4.712-1.588-5.77-2.413c-0.066-0.051-0.188-0.222-0.186-0.424C277.295,58.122,277.359,50.84,277.359,50.84"/>
<path style="fill:#434958;" d="M322.721,39.303c0,4.697,0.944,8.538,2.831,11.523c1.887,2.986,4.827,4.477,8.822,4.477
	c3.6,0,6.474-1.34,8.626-4.017c2.15-2.677,3.226-6.804,3.226-12.378c0-4.652-0.944-8.471-2.831-11.456
	c-1.888-2.986-4.829-4.477-8.822-4.477c-3.513,0-6.366,1.47-8.56,4.411C323.818,30.327,322.721,34.299,322.721,39.303
	 M313.832,39.369c0-6.89,1.8-12.519,5.399-16.889c3.599-4.367,8.669-6.616,15.209-6.749c7.023,0,12.225,2.262,15.605,6.783
	c3.38,4.52,5.07,9.986,5.07,16.394c0,6.937-1.81,12.599-5.432,16.987c-3.621,4.391-8.702,6.584-15.243,6.584
	c-6.979,0-12.158-2.249-15.538-6.749C315.522,51.232,313.832,45.778,313.832,39.369"/>
<path style="fill:#434958;" d="M393.96,61.557c0,0-29.034,0.001-29.256,0c-0.223-0.001-0.306-0.133-0.306-0.277V17.004
	c0-0.144,0.066-0.219,0.178-0.219h8.316v38.122h18.502L393.96,61.557z"/>
<path style="fill:#434958;" d="M408.382,16.785v27.851c0,3.731,0.899,6.442,2.699,8.132c1.799,1.69,4.125,2.535,6.979,2.535
	c2.897,0,5.235-0.878,7.012-2.634c1.777-1.755,2.667-4.433,2.667-8.033V16.785h8.624v28.509c0,4.829-1.656,8.868-4.97,12.115
	c-3.315,3.249-7.802,4.873-13.464,4.873c-5.575,0-9.998-1.624-13.268-4.873c-3.27-3.247-4.905-7.286-4.905-12.115V17.001
	c0,0-0.009-0.216,0.195-0.216H408.382z"/>
<path style="fill:#434958;" d="M442.227,16.785h34.669l2.659,6.716h-15.34v38.056c0,0-7.913,0.001-8.142,0s-0.483-0.198-0.483-0.494
	V23.501h-13.63v-6.413C441.96,16.882,442.067,16.785,442.227,16.785"/>
<path style="fill:#434958;" d="M493.908,16.785v44.772c0,0-7.783,0-8.07,0c-0.287,0.001-0.423-0.203-0.423-0.413V16.982
	c0-0.13,0.063-0.197,0.167-0.197H493.908z"/>
<path style="fill:#434958;" d="M512.079,39.303c0,4.697,0.944,8.538,2.831,11.523c1.886,2.986,4.827,4.477,8.822,4.477
	c3.6,0,6.474-1.34,8.625-4.017s3.227-6.804,3.227-12.378c0-4.652-0.944-8.471-2.831-11.456c-1.888-2.986-4.829-4.477-8.823-4.477
	c-3.511,0-6.365,1.47-8.559,4.411C513.176,30.327,512.079,34.299,512.079,39.303 M503.19,39.369c0-6.89,1.8-12.519,5.399-16.889
	c3.599-4.367,8.669-6.616,15.209-6.749c7.023,0,12.225,2.262,15.605,6.783c3.38,4.52,5.07,9.986,5.07,16.394
	c0,6.937-1.811,12.599-5.432,16.987c-3.621,4.391-8.703,6.584-15.243,6.584c-6.979,0-12.158-2.249-15.538-6.749
	C504.88,51.232,503.19,45.778,503.19,39.369"/>
<path style="fill:#3D6FB6;" d="M208.133,99.264h-1.202l-4.594-16.142c-0.381-1.326-0.668-2.414-0.858-3.263
	c-0.153,0.831-0.37,1.784-0.652,2.862c-0.281,1.078-1.819,6.592-4.615,16.543h-1.23l-5.754-20.922h1.532l3.663,13.481
	c0.144,0.543,0.277,1.047,0.401,1.509c0.124,0.463,0.237,0.898,0.336,1.302c0.101,0.407,0.191,0.798,0.273,1.173
	c0.08,0.378,0.154,0.757,0.221,1.138c0.229-1.297,0.716-3.268,1.46-5.91l3.577-12.693h1.617l4.193,14.569
	c0.487,1.678,0.836,3.033,1.045,4.063c0.124-0.687,0.284-1.416,0.48-2.189c0.195-0.773,1.667-6.254,4.415-16.443h1.473
	L208.133,99.264z"/>
<polygon style="fill:#3D6FB6;" points="232.558,99.264 221.123,99.264 221.123,78.342 232.558,78.342 232.558,79.687 
	222.583,79.687 222.583,87.601 232,87.601 232,88.946 222.583,88.946 222.583,97.919 232.558,97.919 "/>
<path style="fill:#3D6FB6;" d="M263.49,93.869c0,1.745-0.641,3.13-1.925,4.15c-1.283,1.021-2.988,1.531-5.116,1.531
	c-2.557,0-4.517-0.282-5.881-0.845v-1.458c1.507,0.638,3.429,0.958,5.767,0.958c1.717,0,3.078-0.394,4.086-1.181
	c1.006-0.786,1.51-1.819,1.51-3.099c0-0.791-0.168-1.447-0.502-1.967c-0.334-0.52-0.877-0.995-1.631-1.424
	c-0.753-0.429-1.86-0.891-3.32-1.387c-2.138-0.735-3.613-1.529-4.429-2.383c-0.816-0.855-1.224-1.991-1.224-3.414
	c0-1.564,0.613-2.84,1.839-3.827c1.226-0.988,2.802-1.482,4.73-1.482c1.965,0,3.811,0.372,5.538,1.116l-0.53,1.26
	c-1.736-0.726-3.396-1.088-4.979-1.088c-1.546,0-2.777,0.358-3.693,1.073c-0.915,0.716-1.373,1.689-1.373,2.919
	c0,0.773,0.14,1.408,0.422,1.904c0.281,0.496,0.741,0.943,1.38,1.338c0.639,0.396,1.737,0.871,3.292,1.424
	c1.632,0.563,2.857,1.109,3.678,1.639c0.821,0.529,1.418,1.13,1.796,1.803C263.301,92.101,263.49,92.915,263.49,93.869"/>
<path style="fill:#3D6FB6;" d="M271.901,88.774c0,2.995,0.668,5.312,2.003,6.948c1.336,1.635,3.254,2.454,5.754,2.454
	c2.517,0,4.442-0.811,5.773-2.433c1.331-1.621,1.996-3.945,1.996-6.969c0-3.014-0.665-5.326-1.996-6.933
	c-1.331-1.608-3.246-2.411-5.745-2.411c-2.49,0-4.41,0.811-5.761,2.432C272.576,83.484,271.901,85.787,271.901,88.774
	 M289.017,88.774c0,3.32-0.831,5.945-2.49,7.878c-1.66,1.932-3.95,2.898-6.869,2.898c-2.911,0-5.194-0.966-6.856-2.898
	c-1.66-1.933-2.489-4.568-2.489-7.907c0-3.329,0.836-5.95,2.511-7.864c1.675-1.912,3.961-2.868,6.862-2.868
	c2.92,0,5.203,0.96,6.854,2.883C288.191,82.819,289.017,85.445,289.017,88.774"/>
<polygon style="fill:#3D6FB6;" points="297.342,99.264 297.342,78.342 298.803,78.342 298.803,97.89 308.777,97.89 308.777,99.264 
	"/>
<path style="fill:#3D6FB6;" d="M328.264,78.342h1.588l-7.827,20.922h-1.289l-7.798-20.922h1.559l5.267,14.238
	c0.802,2.147,1.34,3.76,1.617,4.838c0.19-0.716,0.568-1.827,1.131-3.334L328.264,78.342z"/>
<polygon style="fill:#3D6FB6;" points="347.766,99.264 336.331,99.264 336.331,78.342 347.766,78.342 347.766,79.687 
	337.792,79.687 337.792,87.601 347.208,87.601 347.208,88.946 337.792,88.946 337.792,97.919 347.766,97.919 "/>
<rect x="367.15" y="78.342" style="fill:#3D6FB6;" width="1.461" height="20.922"/>
<polygon style="fill:#3D6FB6;" points="383.503,99.264 382.029,99.264 382.029,79.716 375.232,79.716 375.232,78.342 390.3,78.342 
	390.3,79.716 383.503,79.716 "/>
<linearGradient id="SVGID_1_" gradientUnits="userSpaceOnUse" x1="123.8551" y1="-0.7071" x2="146.663" y2="128.6425" gradientTransform="matrix(1 0 0 -1 0 126)">
	<stop  offset="0" style="stop-color:#1484C6"/>
	<stop  offset="0.1556" style="stop-color:#2493CC"/>
	<stop  offset="0.4923" style="stop-color:#40B0D8"/>
	<stop  offset="0.7853" style="stop-color:#52C1DF"/>
	<stop  offset="1" style="stop-color:#58C7E1"/>
</linearGradient>
<path style="fill:url(#SVGID_1_);" d="M112.115,13.486v111.151h18.784c30.791-1.378,30.79-35.401,30.79-35.401V0.007L112.115,13.486
	z"/>
<linearGradient id="SVGID_2_" gradientUnits="userSpaceOnUse" x1="-6.6654" y1="12.9149" x2="168.5782" y2="114.0919" gradientTransform="matrix(1 0 0 -1 0 126)">
	<stop  offset="0" style="stop-color:#88CCCF"/>
	<stop  offset="0.464" style="stop-color:#2EBCEE"/>
	<stop  offset="1" style="stop-color:#485CA0"/>
</linearGradient>
<path style="fill:url(#SVGID_2_);" d="M128.289,0c-1.373,0-27.769,0.318-47.456,24.598C60.898,49.186,1.645,122.592,0,124.63h34.033
	c5.188-0.296,28.453-2.591,42.758-20.174C92.964,84.576,161.703,0,161.703,0h-33.359C128.344,0,128.325,0,128.289,0"/>
</svg>
